{
    "block.disenchanttable.use": {
        "sounds": [
            "disenchanter:block/disenchanttable/disenchant1",
            "disenchanter:block/disenchanttable/disenchant2",
            "disenchanter:block/disenchanttable/disenchant3"
        ]
    }
}